{
  "project_info": {
    "project_number": "603630304090",
    "firebase_url": "https://comp5527gp-e647c.firebaseio.com",
    "project_id": "comp5527gp-e647c",
    "storage_bucket": "comp5527gp-e647c.appspot.com"
  },
  "client": [
    {
      "client_info": {
        "mobilesdk_app_id": "1:603630304090:android:7bd71543f89d056a",
        "android_client_info": {
          "package_name": "com.example.flutterapp"
        }
      },
      "oauth_client": [
        {
          "client_id": "603630304090-1mh1va0a9bk1m09k882q6n2s51umkfkm.apps.googleusercontent.com",
          "client_type": 3
        }
      ],
      "api_key": [
        {
          "current_key": "AIzaSyCNMbQmaxGb98hYMtRot8DZeUwsdR9dsEQ"
        }
      ],
      "services": {
        "analytics_service": {
          "status": 1
        },
        "appinvite_service": {
          "status": 1,
          "other_platform_oauth_client": []
        },
        "ads_service": {
          "status": 2
        }
      }
    },
    {
      "client_info": {
        "mobilesdk_app_id": "1:603630304090:android:6696a89e8239a624",
        "android_client_info": {
          "package_name": "com.example.testing"
        }
      },
      "oauth_client": [
        {
          "client_id": "603630304090-1mh1va0a9bk1m09k882q6n2s51umkfkm.apps.googleusercontent.com",
          "client_type": 3
        }
      ],
      "api_key": [
        {
          "current_key": "AIzaSyCNMbQmaxGb98hYMtRot8DZeUwsdR9dsEQ"
        }
      ],
      "services": {
        "analytics_service": {
          "status": 1
        },
        "appinvite_service": {
          "status": 1,
          "other_platform_oauth_client": []
        },
        "ads_service": {
          "status": 2
        }
      }
    }
  ],
  "configuration_version": "1"
}